C:\USERS\JAVI\DOCUMENTS\VISUAL STUDIO 2012\PROJECTS\DATASTRUCTURES_ASSIGNMENT7\DATASTRUCTURES_ASSIGNMENT7\DEBUG\SOURCE.OBJ
C:\USERS\JAVI\DOCUMENTS\VISUAL STUDIO 2012\PROJECTS\DATASTRUCTURES_ASSIGNMENT7\DATASTRUCTURES_ASSIGNMENT7\DEBUG\VC110.PDB
C:\USERS\JAVI\DOCUMENTS\VISUAL STUDIO 2012\PROJECTS\DATASTRUCTURES_ASSIGNMENT7\DEBUG\DATASTRUCTURES_ASSIGNMENT7.ILK
C:\USERS\JAVI\DOCUMENTS\VISUAL STUDIO 2012\PROJECTS\DATASTRUCTURES_ASSIGNMENT7\DEBUG\DATASTRUCTURES_ASSIGNMENT7.EXE
C:\USERS\JAVI\DOCUMENTS\VISUAL STUDIO 2012\PROJECTS\DATASTRUCTURES_ASSIGNMENT7\DEBUG\DATASTRUCTURES_ASSIGNMENT7.PDB
C:\Users\Javi\Documents\Visual Studio 2012\Projects\DataStructures_Assignment7\DataStructures_Assignment7\Debug\cl.command.1.tlog
C:\Users\Javi\Documents\Visual Studio 2012\Projects\DataStructures_Assignment7\DataStructures_Assignment7\Debug\CL.read.1.tlog
C:\Users\Javi\Documents\Visual Studio 2012\Projects\DataStructures_Assignment7\DataStructures_Assignment7\Debug\CL.write.1.tlog
C:\Users\Javi\Documents\Visual Studio 2012\Projects\DataStructures_Assignment7\DataStructures_Assignment7\Debug\link-cvtres.read.1.tlog
C:\Users\Javi\Documents\Visual Studio 2012\Projects\DataStructures_Assignment7\DataStructures_Assignment7\Debug\link-cvtres.write.1.tlog
C:\Users\Javi\Documents\Visual Studio 2012\Projects\DataStructures_Assignment7\DataStructures_Assignment7\Debug\link-rc.read.1.tlog
C:\Users\Javi\Documents\Visual Studio 2012\Projects\DataStructures_Assignment7\DataStructures_Assignment7\Debug\link-rc.write.1.tlog
C:\Users\Javi\Documents\Visual Studio 2012\Projects\DataStructures_Assignment7\DataStructures_Assignment7\Debug\link.144-cvtres.read.1.tlog
C:\Users\Javi\Documents\Visual Studio 2012\Projects\DataStructures_Assignment7\DataStructures_Assignment7\Debug\link.144-cvtres.write.1.tlog
C:\Users\Javi\Documents\Visual Studio 2012\Projects\DataStructures_Assignment7\DataStructures_Assignment7\Debug\link.144-rc.read.1.tlog
C:\Users\Javi\Documents\Visual Studio 2012\Projects\DataStructures_Assignment7\DataStructures_Assignment7\Debug\link.144-rc.write.1.tlog
C:\Users\Javi\Documents\Visual Studio 2012\Projects\DataStructures_Assignment7\DataStructures_Assignment7\Debug\link.144.read.1.tlog
C:\Users\Javi\Documents\Visual Studio 2012\Projects\DataStructures_Assignment7\DataStructures_Assignment7\Debug\link.144.write.1.tlog
C:\Users\Javi\Documents\Visual Studio 2012\Projects\DataStructures_Assignment7\DataStructures_Assignment7\Debug\link.1636-cvtres.read.1.tlog
C:\Users\Javi\Documents\Visual Studio 2012\Projects\DataStructures_Assignment7\DataStructures_Assignment7\Debug\link.1636-cvtres.write.1.tlog
C:\Users\Javi\Documents\Visual Studio 2012\Projects\DataStructures_Assignment7\DataStructures_Assignment7\Debug\link.1636-rc.read.1.tlog
C:\Users\Javi\Documents\Visual Studio 2012\Projects\DataStructures_Assignment7\DataStructures_Assignment7\Debug\link.1636-rc.write.1.tlog
C:\Users\Javi\Documents\Visual Studio 2012\Projects\DataStructures_Assignment7\DataStructures_Assignment7\Debug\link.1636.read.1.tlog
C:\Users\Javi\Documents\Visual Studio 2012\Projects\DataStructures_Assignment7\DataStructures_Assignment7\Debug\link.1636.write.1.tlog
C:\Users\Javi\Documents\Visual Studio 2012\Projects\DataStructures_Assignment7\DataStructures_Assignment7\Debug\link.2336-cvtres.read.1.tlog
C:\Users\Javi\Documents\Visual Studio 2012\Projects\DataStructures_Assignment7\DataStructures_Assignment7\Debug\link.2336-cvtres.write.1.tlog
C:\Users\Javi\Documents\Visual Studio 2012\Projects\DataStructures_Assignment7\DataStructures_Assignment7\Debug\link.2336-rc.read.1.tlog
C:\Users\Javi\Documents\Visual Studio 2012\Projects\DataStructures_Assignment7\DataStructures_Assignment7\Debug\link.2336-rc.write.1.tlog
C:\Users\Javi\Documents\Visual Studio 2012\Projects\DataStructures_Assignment7\DataStructures_Assignment7\Debug\link.2336.read.1.tlog
C:\Users\Javi\Documents\Visual Studio 2012\Projects\DataStructures_Assignment7\DataStructures_Assignment7\Debug\link.2336.write.1.tlog
C:\Users\Javi\Documents\Visual Studio 2012\Projects\DataStructures_Assignment7\DataStructures_Assignment7\Debug\link.3596-cvtres.read.1.tlog
C:\Users\Javi\Documents\Visual Studio 2012\Projects\DataStructures_Assignment7\DataStructures_Assignment7\Debug\link.3596-cvtres.write.1.tlog
C:\Users\Javi\Documents\Visual Studio 2012\Projects\DataStructures_Assignment7\DataStructures_Assignment7\Debug\link.3596-rc.read.1.tlog
C:\Users\Javi\Documents\Visual Studio 2012\Projects\DataStructures_Assignment7\DataStructures_Assignment7\Debug\link.3596-rc.write.1.tlog
C:\Users\Javi\Documents\Visual Studio 2012\Projects\DataStructures_Assignment7\DataStructures_Assignment7\Debug\link.3596.read.1.tlog
C:\Users\Javi\Documents\Visual Studio 2012\Projects\DataStructures_Assignment7\DataStructures_Assignment7\Debug\link.3596.write.1.tlog
C:\Users\Javi\Documents\Visual Studio 2012\Projects\DataStructures_Assignment7\DataStructures_Assignment7\Debug\link.4072-cvtres.read.1.tlog
C:\Users\Javi\Documents\Visual Studio 2012\Projects\DataStructures_Assignment7\DataStructures_Assignment7\Debug\link.4072-cvtres.write.1.tlog
C:\Users\Javi\Documents\Visual Studio 2012\Projects\DataStructures_Assignment7\DataStructures_Assignment7\Debug\link.4072-rc.read.1.tlog
C:\Users\Javi\Documents\Visual Studio 2012\Projects\DataStructures_Assignment7\DataStructures_Assignment7\Debug\link.4072-rc.write.1.tlog
C:\Users\Javi\Documents\Visual Studio 2012\Projects\DataStructures_Assignment7\DataStructures_Assignment7\Debug\link.4072.read.1.tlog
C:\Users\Javi\Documents\Visual Studio 2012\Projects\DataStructures_Assignment7\DataStructures_Assignment7\Debug\link.4072.write.1.tlog
C:\Users\Javi\Documents\Visual Studio 2012\Projects\DataStructures_Assignment7\DataStructures_Assignment7\Debug\link.4368-cvtres.read.1.tlog
C:\Users\Javi\Documents\Visual Studio 2012\Projects\DataStructures_Assignment7\DataStructures_Assignment7\Debug\link.4368-cvtres.write.1.tlog
C:\Users\Javi\Documents\Visual Studio 2012\Projects\DataStructures_Assignment7\DataStructures_Assignment7\Debug\link.4368-rc.read.1.tlog
C:\Users\Javi\Documents\Visual Studio 2012\Projects\DataStructures_Assignment7\DataStructures_Assignment7\Debug\link.4368-rc.write.1.tlog
C:\Users\Javi\Documents\Visual Studio 2012\Projects\DataStructures_Assignment7\DataStructures_Assignment7\Debug\link.4368.read.1.tlog
C:\Users\Javi\Documents\Visual Studio 2012\Projects\DataStructures_Assignment7\DataStructures_Assignment7\Debug\link.4368.write.1.tlog
C:\Users\Javi\Documents\Visual Studio 2012\Projects\DataStructures_Assignment7\DataStructures_Assignment7\Debug\link.4616-cvtres.read.1.tlog
C:\Users\Javi\Documents\Visual Studio 2012\Projects\DataStructures_Assignment7\DataStructures_Assignment7\Debug\link.4616-cvtres.write.1.tlog
C:\Users\Javi\Documents\Visual Studio 2012\Projects\DataStructures_Assignment7\DataStructures_Assignment7\Debug\link.4616-rc.read.1.tlog
C:\Users\Javi\Documents\Visual Studio 2012\Projects\DataStructures_Assignment7\DataStructures_Assignment7\Debug\link.4616-rc.write.1.tlog
C:\Users\Javi\Documents\Visual Studio 2012\Projects\DataStructures_Assignment7\DataStructures_Assignment7\Debug\link.4616.read.1.tlog
C:\Users\Javi\Documents\Visual Studio 2012\Projects\DataStructures_Assignment7\DataStructures_Assignment7\Debug\link.4616.write.1.tlog
C:\Users\Javi\Documents\Visual Studio 2012\Projects\DataStructures_Assignment7\DataStructures_Assignment7\Debug\link.6048-cvtres.read.1.tlog
C:\Users\Javi\Documents\Visual Studio 2012\Projects\DataStructures_Assignment7\DataStructures_Assignment7\Debug\link.6048-cvtres.write.1.tlog
C:\Users\Javi\Documents\Visual Studio 2012\Projects\DataStructures_Assignment7\DataStructures_Assignment7\Debug\link.6048-rc.read.1.tlog
C:\Users\Javi\Documents\Visual Studio 2012\Projects\DataStructures_Assignment7\DataStructures_Assignment7\Debug\link.6048-rc.write.1.tlog
C:\Users\Javi\Documents\Visual Studio 2012\Projects\DataStructures_Assignment7\DataStructures_Assignment7\Debug\link.6048.read.1.tlog
C:\Users\Javi\Documents\Visual Studio 2012\Projects\DataStructures_Assignment7\DataStructures_Assignment7\Debug\link.6048.write.1.tlog
C:\Users\Javi\Documents\Visual Studio 2012\Projects\DataStructures_Assignment7\DataStructures_Assignment7\Debug\link.6076-cvtres.read.1.tlog
C:\Users\Javi\Documents\Visual Studio 2012\Projects\DataStructures_Assignment7\DataStructures_Assignment7\Debug\link.6076-cvtres.write.1.tlog
C:\Users\Javi\Documents\Visual Studio 2012\Projects\DataStructures_Assignment7\DataStructures_Assignment7\Debug\link.6076-rc.read.1.tlog
C:\Users\Javi\Documents\Visual Studio 2012\Projects\DataStructures_Assignment7\DataStructures_Assignment7\Debug\link.6076-rc.write.1.tlog
C:\Users\Javi\Documents\Visual Studio 2012\Projects\DataStructures_Assignment7\DataStructures_Assignment7\Debug\link.6076.read.1.tlog
C:\Users\Javi\Documents\Visual Studio 2012\Projects\DataStructures_Assignment7\DataStructures_Assignment7\Debug\link.6076.write.1.tlog
C:\Users\Javi\Documents\Visual Studio 2012\Projects\DataStructures_Assignment7\DataStructures_Assignment7\Debug\link.6324-cvtres.read.1.tlog
C:\Users\Javi\Documents\Visual Studio 2012\Projects\DataStructures_Assignment7\DataStructures_Assignment7\Debug\link.6324-cvtres.write.1.tlog
C:\Users\Javi\Documents\Visual Studio 2012\Projects\DataStructures_Assignment7\DataStructures_Assignment7\Debug\link.6324-rc.read.1.tlog
C:\Users\Javi\Documents\Visual Studio 2012\Projects\DataStructures_Assignment7\DataStructures_Assignment7\Debug\link.6324-rc.write.1.tlog
C:\Users\Javi\Documents\Visual Studio 2012\Projects\DataStructures_Assignment7\DataStructures_Assignment7\Debug\link.6324.read.1.tlog
C:\Users\Javi\Documents\Visual Studio 2012\Projects\DataStructures_Assignment7\DataStructures_Assignment7\Debug\link.6324.write.1.tlog
C:\Users\Javi\Documents\Visual Studio 2012\Projects\DataStructures_Assignment7\DataStructures_Assignment7\Debug\link.6536-cvtres.read.1.tlog
C:\Users\Javi\Documents\Visual Studio 2012\Projects\DataStructures_Assignment7\DataStructures_Assignment7\Debug\link.6536-cvtres.write.1.tlog
C:\Users\Javi\Documents\Visual Studio 2012\Projects\DataStructures_Assignment7\DataStructures_Assignment7\Debug\link.6536-rc.read.1.tlog
C:\Users\Javi\Documents\Visual Studio 2012\Projects\DataStructures_Assignment7\DataStructures_Assignment7\Debug\link.6536-rc.write.1.tlog
C:\Users\Javi\Documents\Visual Studio 2012\Projects\DataStructures_Assignment7\DataStructures_Assignment7\Debug\link.6536.read.1.tlog
C:\Users\Javi\Documents\Visual Studio 2012\Projects\DataStructures_Assignment7\DataStructures_Assignment7\Debug\link.6536.write.1.tlog
C:\Users\Javi\Documents\Visual Studio 2012\Projects\DataStructures_Assignment7\DataStructures_Assignment7\Debug\link.6620-cvtres.read.1.tlog
C:\Users\Javi\Documents\Visual Studio 2012\Projects\DataStructures_Assignment7\DataStructures_Assignment7\Debug\link.6620-cvtres.write.1.tlog
C:\Users\Javi\Documents\Visual Studio 2012\Projects\DataStructures_Assignment7\DataStructures_Assignment7\Debug\link.6620-rc.read.1.tlog
C:\Users\Javi\Documents\Visual Studio 2012\Projects\DataStructures_Assignment7\DataStructures_Assignment7\Debug\link.6620-rc.write.1.tlog
C:\Users\Javi\Documents\Visual Studio 2012\Projects\DataStructures_Assignment7\DataStructures_Assignment7\Debug\link.6620.read.1.tlog
C:\Users\Javi\Documents\Visual Studio 2012\Projects\DataStructures_Assignment7\DataStructures_Assignment7\Debug\link.6620.write.1.tlog
C:\Users\Javi\Documents\Visual Studio 2012\Projects\DataStructures_Assignment7\DataStructures_Assignment7\Debug\link.6736-cvtres.read.1.tlog
C:\Users\Javi\Documents\Visual Studio 2012\Projects\DataStructures_Assignment7\DataStructures_Assignment7\Debug\link.6736-cvtres.write.1.tlog
C:\Users\Javi\Documents\Visual Studio 2012\Projects\DataStructures_Assignment7\DataStructures_Assignment7\Debug\link.6736-rc.read.1.tlog
C:\Users\Javi\Documents\Visual Studio 2012\Projects\DataStructures_Assignment7\DataStructures_Assignment7\Debug\link.6736-rc.write.1.tlog
C:\Users\Javi\Documents\Visual Studio 2012\Projects\DataStructures_Assignment7\DataStructures_Assignment7\Debug\link.6736.read.1.tlog
C:\Users\Javi\Documents\Visual Studio 2012\Projects\DataStructures_Assignment7\DataStructures_Assignment7\Debug\link.6736.write.1.tlog
C:\Users\Javi\Documents\Visual Studio 2012\Projects\DataStructures_Assignment7\DataStructures_Assignment7\Debug\link.776-cvtres.read.1.tlog
C:\Users\Javi\Documents\Visual Studio 2012\Projects\DataStructures_Assignment7\DataStructures_Assignment7\Debug\link.776-cvtres.write.1.tlog
C:\Users\Javi\Documents\Visual Studio 2012\Projects\DataStructures_Assignment7\DataStructures_Assignment7\Debug\link.776-rc.read.1.tlog
C:\Users\Javi\Documents\Visual Studio 2012\Projects\DataStructures_Assignment7\DataStructures_Assignment7\Debug\link.776-rc.write.1.tlog
C:\Users\Javi\Documents\Visual Studio 2012\Projects\DataStructures_Assignment7\DataStructures_Assignment7\Debug\link.776.read.1.tlog
C:\Users\Javi\Documents\Visual Studio 2012\Projects\DataStructures_Assignment7\DataStructures_Assignment7\Debug\link.776.write.1.tlog
C:\Users\Javi\Documents\Visual Studio 2012\Projects\DataStructures_Assignment7\DataStructures_Assignment7\Debug\link.command.1.tlog
C:\Users\Javi\Documents\Visual Studio 2012\Projects\DataStructures_Assignment7\DataStructures_Assignment7\Debug\link.read.1.tlog
C:\Users\Javi\Documents\Visual Studio 2012\Projects\DataStructures_Assignment7\DataStructures_Assignment7\Debug\link.write.1.tlog
C:\Users\Javi\Documents\Visual Studio 2012\Projects\DataStructures_Assignment7\DataStructures_Assignment7\Debug\vc110.idb
C:\Users\Javi\Documents\Visual Studio 2012\Projects\DataStructures_Assignment7\DataStructures_Assignment7\Debug\vc110.pdb
C:\Users\Javi\Documents\Visual Studio 2012\Projects\DataStructures_Assignment7\Debug\DataStructures_Assignment7.pdb
C:\Users\Javi\Documents\Visual Studio 2012\Projects\DataStructures_Assignment7\Debug\DataStructures_Assignment7.exe
C:\Users\Javi\Documents\Visual Studio 2012\Projects\DataStructures_Assignment7\Debug\DataStructures_Assignment7.ilk
