^C:\USERS\JAVI\DOCUMENTS\VISUAL STUDIO 2012\PROJECTS\DATASTRUCTURES_ASSIGNMENT7\DATASTRUCTURES_ASSIGNMENT7\DEBUG\SOURCE.OBJ
C:\USERS\JAVI\DOCUMENTS\VISUAL STUDIO 2012\PROJECTS\DATASTRUCTURES_ASSIGNMENT7\DEBUG\DATASTRUCTURES_ASSIGNMENT7.ILK
C:\USERS\JAVI\DOCUMENTS\VISUAL STUDIO 2012\PROJECTS\DATASTRUCTURES_ASSIGNMENT7\DEBUG\DATASTRUCTURES_ASSIGNMENT7.EXE
C:\USERS\JAVI\DOCUMENTS\VISUAL STUDIO 2012\PROJECTS\DATASTRUCTURES_ASSIGNMENT7\DEBUG\DATASTRUCTURES_ASSIGNMENT7.PDB
